Shark Attacks
…
shark <- shark %>% 
  select(-c(Name, `Investigator or Source`, pdf, `href formula`, href, `Case Number_1`, `Case Number_2`, X23, X24, `original order`)) %>% 
  rename(Fatal = `Fatal (Y/N)`) %>% 
  rename(Case = `Case Number`) %>% 
  mutate(Age = as.numeric(Age)) %>% 
  dplyr::filter(Year >= 1900)

shark %>% 
  group_by(Country) %>% 
  count() %>% 
  arrange(desc(n)) 

# A tibble: 172 x 2
# Groups:   Country [172]
   Country              n
   <chr>            <int>
 1 USA               2083
 2 AUSTRALIA         1180
 3 SOUTH AFRICA       549
 4 PAPUA NEW GUINEA   130
 5 BRAZIL             108
 6 BAHAMAS            100
 7 NEW ZEALAND         97
 8 MEXICO              79
 9 ITALY               61
10 PHILIPPINES         58
# ... with 162 more rows
…
